<?xml version="1.0" encoding="utf-8"?>
<!-- Generator: Adobe Illustrator 20.0.0, SVG Export Plug-In . SVG Version: 6.00 Build 0)  -->
<!DOCTYPE svg PUBLIC "-//W3C//DTD SVG 1.1//EN" "http://www.w3.org/Graphics/SVG/1.1/DTD/svg11.dtd" [
	<!ENTITY st0 "fill:#E14329;">
]>
<svg version="1.1" id="Layer_1" xmlns="http://www.w3.org/2000/svg" xmlns:xlink="http://www.w3.org/1999/xlink" x="0px" y="0px"
	 viewBox="0 0 76 76" style="enable-background:new 0 0 76 76;" xml:space="preserve">
<g id="Layer_2">
</g>
<g id="Layer_1_1_" xmlns:sketch="http://www.bohemiancoding.com/sketch/ns">
	<path style="&st0;" d="M68,67c-1.725,0-3.36,0.541-4.723,1.545C60.979,64.529,56.685,62,52,62c-2.734,0-5.359,0.853-7.555,2.43
		L42.159,49h1.228l3.829,7.645c0.339,0.598,0.962,0.979,1.724,1.022l2.812-0.003c0.507-0.039,0.974-0.25,1.316-0.595
		c0.264-0.266,0.433-0.559,0.514-0.882l3.433-13.145c0.12-0.611-0.037-1.258-0.449-1.763l-7.385-8.268
		c0.231-2.875,0.354-5.376,0.374-7.641C49.532,14.863,46.684,7.908,39.393,0.564c-0.737-0.742-2.072-0.715-2.829,0.044
		c-5.617,5.659-8.309,10.336-9.446,16.463c-1.267,0.186-2.438,0.764-3.36,1.686C22.624,19.891,22,21.397,22,23
		s0.624,3.109,1.758,4.242C24.891,28.376,26.397,29,28,29s3.109-0.624,4.242-1.758C33.376,26.109,34,24.603,34,23
		s-0.624-3.109-1.758-4.242c-0.858-0.859-1.932-1.424-3.098-1.648c1.095-5.538,3.637-9.855,8.83-15.136
		c6.874,6.924,9.561,13.485,9.581,23.392c-0.021,2.316-0.151,4.903-0.402,7.91c-0.023,0.273,0.067,0.544,0.25,0.749l7.663,8.572
		l-3.391,13.07l-2.695,0.036l-4.081-8.15C44.729,47.214,44.383,47,44.004,47H31.996c-0.379,0-0.725,0.214-0.895,0.553l-4.041,8.114
		l-2.707,0.015l-3.427-13.069l7.671-8.588c0.367-0.412,0.332-1.044-0.08-1.412c-0.411-0.366-1.043-0.333-1.412,0.08l-7.7,8.623
		c-0.383,0.47-0.54,1.116-0.406,1.787l3.419,13.084c0.216,0.829,0.98,1.438,1.907,1.48h2.735c0.508,0,1.016-0.218,1.391-0.595
		c0.091-0.09,0.242-0.241,0.358-0.475L32.613,49h1.228l-2.286,15.43C29.359,62.853,26.734,62,24,62
		c-4.685,0-8.979,2.53-11.277,6.545C11.36,67.541,9.725,67,8,67c-4.411,0-8,3.589-8,8c0,0.553,0.447,1,1,1h74c0.553,0,1-0.447,1-1
		C76,70.589,72.411,67,68,67z M32,23c0,1.068-0.416,2.072-1.172,2.828c-1.512,1.512-4.145,1.512-5.656,0
		C24.416,25.072,24,24.068,24,23s0.416-2.072,1.172-2.828S26.932,19,28,19s2.072,0.416,2.828,1.172S32,21.932,32,23z M2.083,74
		C2.561,71.166,5.032,69,8,69c1.638,0,3.17,0.652,4.313,1.836c0.231,0.24,0.562,0.35,0.895,0.29
		c0.327-0.058,0.604-0.274,0.739-0.579C15.712,66.57,19.658,64,24,64c2.836,0,5.532,1.085,7.593,3.055
		c0.271,0.258,0.665,0.345,1.016,0.224c0.354-0.122,0.61-0.43,0.665-0.8L35.862,49h4.275l2.589,17.479
		c0.055,0.37,0.312,0.678,0.665,0.8s0.745,0.035,1.016-0.224C46.468,65.085,49.164,64,52,64c4.343,0,8.288,2.57,10.053,6.547
		c0.135,0.305,0.412,0.521,0.739,0.579c0.329,0.059,0.663-0.051,0.895-0.29C64.83,69.652,66.362,69,68,69
		c2.968,0,5.439,2.166,5.917,5H2.083z"/>
</g>
<g id="Layer_3">
</g>
</svg>
