<?xml version="1.0" encoding="utf-8"?>
<!-- Generator: Adobe Illustrator 19.2.1, SVG Export Plug-In . SVG Version: 6.00 Build 0)  -->
<svg version="1.1" id="Layer_1" xmlns:sketch="http://www.bohemiancoding.com/sketch/ns"
	 xmlns="http://www.w3.org/2000/svg" xmlns:xlink="http://www.w3.org/1999/xlink" x="0px" y="0px" viewBox="0 0 2048 1160"
	 style="enable-background:new 0 0 2048 1160;" xml:space="preserve">
<style type="text/css">
	.st0{fill:none;stroke:#E5E5E4;stroke-width:2;stroke-linecap:round;stroke-linejoin:round;stroke-miterlimit:10;}
	.st1{fill:#8C929D;}
	.st2{fill:#FC6D26;}
	.st3{fill:#E24329;}
	.st4{fill:#FCA326;}
	.st5{fill:#444444;}
	.st6{fill:#554488;}
	.st7{fill:#4887C5;}
	.st8{fill:url(#SVGID_1_);}
	.st9{fill:url(#SVGID_2_);}
	.st10{fill:#FFFFFF;}
	.st11{opacity:0.1;}
	.st12{fill:#5C5C5C;}
	.st13{fill:#787878;}
	.st14{fill:#A1A1A1;}
	.st15{opacity:0.15;}
	.st16{fill:#373D47;}
	.st17{fill:none;stroke:#000000;stroke-miterlimit:10;}
	.st18{fill:none;stroke:#FC6D26;stroke-width:1.8;stroke-linecap:round;stroke-linejoin:round;stroke-miterlimit:10;}
	.st19{fill:none;stroke:#E24329;stroke-width:1.8;stroke-linecap:round;stroke-linejoin:round;stroke-miterlimit:10;}
	.st20{fill:none;stroke:#FCA326;stroke-width:1.8;stroke-linecap:round;stroke-linejoin:round;stroke-miterlimit:10;}
	.st21{fill:none;stroke:#E5E5E4;stroke-width:1.8;stroke-linecap:round;stroke-linejoin:round;stroke-miterlimit:10;}
	.st22{fill:#2B2B2B;}
	.st23{fill:#FFFFFF;stroke:#E5E5E4;stroke-width:2;stroke-linecap:round;stroke-linejoin:round;stroke-miterlimit:10;}
	.st24{fill:#E5E5E4;}
	.st25{fill:none;stroke:#E5E5E4;stroke-width:1.8353;stroke-linecap:round;stroke-linejoin:round;stroke-miterlimit:10;}
	.st26{fill:none;stroke:#E14329;stroke-width:2;stroke-linecap:round;stroke-linejoin:round;stroke-miterlimit:10;}
	.st27{fill:#FFFFFF;stroke:#E14329;stroke-width:2;stroke-linecap:round;stroke-linejoin:round;stroke-miterlimit:10;}
	.st28{fill:none;stroke:#E14329;stroke-width:1.9627;stroke-linecap:round;stroke-linejoin:round;stroke-miterlimit:10;}
	.st29{fill:#E14329;}
	.st30{fill:none;stroke:#E14329;stroke-width:2.1099;stroke-linecap:round;stroke-linejoin:round;stroke-miterlimit:10;}
	.st31{fill:none;stroke:#FCA326;stroke-width:2;stroke-linecap:round;stroke-linejoin:round;stroke-miterlimit:10;}
	.st32{fill:none;stroke:#E14329;stroke-width:4;stroke-linecap:round;stroke-linejoin:round;stroke-miterlimit:10;}
	.st33{fill:none;stroke:#E14329;stroke-width:1.8353;stroke-linecap:round;stroke-linejoin:round;stroke-miterlimit:10;}
	.st34{fill:none;stroke:#E14329;stroke-width:2.055;stroke-linecap:round;stroke-linejoin:round;stroke-miterlimit:10;}
	.st35{fill:#463675;}
	.st36{fill:none;stroke:#FFFFFF;stroke-width:2;stroke-miterlimit:10;}
	.st37{fill:none;stroke:#FFFFFF;stroke-width:2.0065;stroke-miterlimit:10;}
	.st38{fill:none;stroke:#E14329;stroke-width:2.1111;stroke-linecap:round;stroke-linejoin:round;stroke-miterlimit:10;}
	.st39{fill:none;stroke:#E14329;stroke-width:2.0295;stroke-linecap:round;stroke-linejoin:round;stroke-miterlimit:10;}
	.st40{fill:#FFB6CA;}
	.st41{fill:none;stroke:#E24329;stroke-width:2;stroke-linecap:round;stroke-linejoin:round;stroke-miterlimit:10;}
</style>
<g class="st15">
	<g id="g48_46_" transform="translate(136.410135, 1.012147)" sketch:type="MSLayerGroup">
		<path id="path50_46_" sketch:type="MSShapeGroup" class="st12" d="M887.6-1.2L887.6-1.2L510.5,1159.2h754.2L887.6-1.2L887.6-1.2z"
			/>
	</g>
	<g id="g56_50_" transform="translate(24.893471, 1.012613)" sketch:type="MSLayerGroup">
		<path id="path58_50_" sketch:type="MSShapeGroup" class="st13" d="M999.1-1.2l377.1,1160.3h528.5L999.1-1.2L999.1-1.2z"/>
	</g>
	<g id="g64_50_" transform="translate(0.077245, 0.223203)" sketch:type="MSLayerGroup">
		<path id="path66_50_" sketch:type="MSShapeGroup" class="st14" d="M1929.5,1160L1929.5,1160l114.6-352.6
			c10.5-32.2-1-67.4-28.4-87.3L1023.9-0.4L1929.5,1160L1929.5,1160z"/>
	</g>
	<g id="g76_42_" transform="translate(215.680133, 1.012613)" sketch:type="MSLayerGroup">
		<path id="path78_42_" sketch:type="MSShapeGroup" class="st13" d="M808.3-1.2L431.2,1159.2H-97.3L808.3-1.2L808.3-1.2z"/>
	</g>
	<g id="g80_42_" transform="translate(214.902910, 0.223203)" sketch:type="MSLayerGroup">
		<path id="path82_42_" sketch:type="MSShapeGroup" class="st14" d="M-96.5,1160L-96.5,1160l-114.6-352.6
			c-10.5-32.2,1-67.4,28.4-87.3L809.1-0.4L-96.5,1160L-96.5,1160z"/>
	</g>
</g>
<g class="st11">
	<g id="g48_45_" transform="translate(136.410135, 1.012147)" sketch:type="MSLayerGroup">
		<path id="path50_45_" sketch:type="MSShapeGroup" class="st12" d="M887.6,1159.2L887.6,1159.2L1264.7-1.2H510.5L887.6,1159.2
			L887.6,1159.2z"/>
	</g>
	<g id="g56_49_" transform="translate(24.893471, 1.012613)" sketch:type="MSLayerGroup">
		<path id="path58_49_" sketch:type="MSShapeGroup" class="st13" d="M999.1,1159.2L622-1.2H93.5L999.1,1159.2L999.1,1159.2z"/>
	</g>
	<g id="g64_49_" transform="translate(0.077245, 0.223203)" sketch:type="MSLayerGroup">
		<path id="path66_49_" sketch:type="MSShapeGroup" class="st14" d="M118.3-0.4L118.3-0.4L3.7,352.2c-10.5,32.2,1,67.4,28.4,87.3
			l991.8,720.5L118.3-0.4L118.3-0.4z"/>
	</g>
	<g id="g76_41_" transform="translate(215.680133, 1.012613)" sketch:type="MSLayerGroup">
		<path id="path78_41_" sketch:type="MSShapeGroup" class="st13" d="M808.3,1159.2L1185.4-1.2h528.5L808.3,1159.2L808.3,1159.2z"/>
	</g>
	<g id="g80_41_" transform="translate(214.902910, 0.223203)" sketch:type="MSLayerGroup">
		<path id="path82_41_" sketch:type="MSShapeGroup" class="st14" d="M1714.7-0.4L1714.7-0.4l114.6,352.6c10.5,32.2-1,67.4-28.4,87.3
			l-991.8,720.5L1714.7-0.4L1714.7-0.4z"/>
	</g>
</g>
</svg>
